…
*Hint: The relevant function is sf::read_sf().*


``` r
counties <- sf::read_sf(here("raw_data/census/cb_2020_us_county_20m.shp"))
counties
```

```
## Simple feature collection with 3221 features and 12 fields
## Geometry type: MULTIPOLYGON
## Dimension:     XY
## Bounding box:  xmin: -179.1743 ymin: 17.91377 xmax: 179.7739 ymax: 71.35256
## Geodetic CRS:  NAD83
## # A tibble: 3,221 × 13
##    STATEFP COUNTYFP COUNTYNS AFFGEOID     GEOID NAME  NAMELSAD STUSPS STATE_NAME
##    <chr>   <chr>    <chr>    <chr>        <chr> <chr> <chr>    <chr>  <chr>     
##  1 01      061      00161556 0500000US01… 01061 Gene… Geneva … AL     Alabama   
##  2 08      125      00198178 0500000US08… 08125 Yuma  Yuma Co… CO     Colorado  
##  3 17      177      01785076 0500000US17… 17177 Step… Stephen… IL     Illinois  
##  4 28      153      00695797 0500000US28… 28153 Wayne Wayne C… MS     Mississip…
##  5 34      041      00882237 0500000US34… 34041 Warr… Warren … NJ     New Jersey
##  6 46      051      01265782 0500000US46… 46051 Grant Grant C… SD     South Dak…
##  7 51      013      01480097 0500000US51… 51013 Arli… Arlingt… VA     Virginia  
##  8 21      007      00516850 0500000US21… 21007 Ball… Ballard… KY     Kentucky  
##  9 37      091      01026127 0500000US37… 37091 Hert… Hertfor… NC     North Car…
## 10 13      057      01685718 0500000US13… 13057 Cher… Cheroke… GA     Georgia   
## # ℹ 3,211 more rows
## # ℹ 4 more variables: LSAD <chr>, ALAND <dbl>, AWATER <dbl>,
## #   geometry <MULTIPOLYGON [°]>
```

**The county shapefile contains 3221 county-level polygons with attributes including `GEOID` (5-digit county FIPS), `STATEFP`, `NAME`, and the `geometry` column. The data are stored as an `sf` MULTIPOLYGON object.**

### (1b) Limiting to the contiguous United States

We will limit attention to the contiguous United States. Investigate if there are any extra states in your data and get rid of the non-contiguous states. (You can keep DC. It is contiguous.) Confirm that you have restricted attention to the contiguous United States with a simple ggplot. It does not need to be pretty. We are just exploring data at this stage.


``` r
# all STATEFP codes present in the shapefile
counties %>% st_drop_geometry() %>% distinct(STATEFP) %>% arrange(STATEFP)
```

```
## # A tibble: 52 × 1
##    STATEFP
##    <chr>  
##  1 01     
##  2 02     
##  3 04     
##  4 05     
##  5 06     
##  6 08     
##  7 09     
##  8 10     
##  9 11     
## 10 12     
## # ℹ 42 more rows
```
…
``` r
climate_df <- lapply(c("01","07"), get_climate_month) %>% bind_rows()
climate_df
```

```
## # A tibble: 6,216 × 4
##    GEOID month tmax_normal tmax_2025
##    <chr> <int>       <dbl>     <dbl>
##  1 01001     1        13.7     11.6 
##  2 01003     1        15.9     13.7 
##  3 01005     1        14.9     12.1 
##  4 01007     1        13.1     11.2 
##  5 01009     1        11.0      8.35
##  6 01011     1        14.4     11.8 
##  7 01013     1        15.0     12.3 
##  8 01015     1        11.7      9.78
##  9 01017     1        13.2     10.8 
## 10 01019     1        10.8      8.85
## # ℹ 6,206 more rows
```
…
``` r
climate_wide <- climate_df %>%
  pivot_wider(
    id_cols     = GEOID,
    names_from  = month,
    values_from = c(tmax_normal, tmax_2025),
    names_glue  = "{.value}_{sprintf('%02d', month)}"
  )
climate_wide
```

```
## # A tibble: 3,108 × 5
##    GEOID tmax_normal_01 tmax_normal_07 tmax_2025_01 tmax_2025_07
##    <chr>          <dbl>          <dbl>        <dbl>        <dbl>
##  1 01001           13.7           32.7        11.6          33.8
##  2 01003           15.9           32.2        13.7          33.2
##  3 01005           14.9           32.9        12.1          33.7
##  4 01007           13.1           33.1        11.2          33.7
##  5 01009           11.0           31.7         8.35         31.8
##  6 01011           14.4           32.7        11.8          33.2
##  7 01013           15.0           32.9        12.3          33.2
##  8 01015           11.7           31.9         9.78         32.9
##  9 01017           13.2           32.4        10.8          32.8
## 10 01019           10.8           32.1         8.85         33.8
## # ℹ 3,098 more rows
```
…
counties %>%
  select(GEOID, NAME, STATEFP,
         tmax_normal_01, tmax_normal_07,
         tmax_2025_01,   tmax_2025_07,
         geometry)
```

```
## Simple feature collection with 3108 features and 7 fields
## Geometry type: MULTIPOLYGON
## Dimension:     XY
## Bounding box:  xmin: -2356114 ymin: 268660.9 xmax: 2258154 ymax: 3165722
## Projected CRS: NAD83 / Conus Albers
## # A tibble: 3,108 × 8
##    GEOID NAME    STATEFP tmax_normal_01 tmax_normal_07 tmax_2025_01 tmax_2025_07
##    <chr> <chr>   <chr>            <dbl>          <dbl>        <dbl>        <dbl>
##  1 01001 Autauga 01                13.7           32.7        11.6          33.8
##  2 01003 Baldwin 01                15.9           32.2        13.7          33.2
##  3 01005 Barbour 01                14.9           32.9        12.1          33.7
##  4 01007 Bibb    01                13.1           33.1        11.2          33.7
##  5 01009 Blount  01                11.0           31.7         8.35         31.8
##  6 01011 Bullock 01                14.4           32.7        11.8          33.2
##  7 01013 Butler  01                15.0           32.9        12.3          33.2
##  8 01015 Calhoun 01                11.7           31.9         9.78         32.9
##  9 01017 Chambe… 01                13.2           32.4        10.8          32.8
## 10 01019 Cherok… 01                10.8           32.1         8.85         33.8
## # ℹ 3,098 more rows
## # ℹ 1 more variable: geometry <MULTIPOLYGON [m]>
```
…
county_df
```

```
## # A tibble: 3,108 × 12
##    GEOID NAME     STATEFP pop_2000 pop_2020 pop_pct_change tmax_normal_01
##    <chr> <chr>    <chr>      <dbl>    <dbl>          <dbl>          <dbl>
##  1 01001 Autauga  01         43671    58805          34.7            13.7
##  2 01003 Baldwin  01        140415   231767          65.1            15.9
##  3 01005 Barbour  01         29038    25223         -13.1            14.9
##  4 01007 Bibb     01         20826    22293           7.04           13.1
##  5 01009 Blount   01         51024    59134          15.9            11.0
##  6 01011 Bullock  01         11714    10357         -11.6            14.4
##  7 01013 Butler   01         21399    19051         -11.0            15.0
##  8 01015 Calhoun  01        112249   116441           3.73           11.7
##  9 01017 Chambers 01         36583    34772          -4.95           13.2
## 10 01019 Cherokee 01         23988    24971           4.10           10.8
## # ℹ 3,098 more rows
## # ℹ 5 more variables: tmax_normal_07 <dbl>, tmax_2025_01 <dbl>,
## #   tmax_2025_07 <dbl>, jan_anom <dbl>, jul_anom <dbl>
```
…
